{
  "project_info": {
    "project_number": "286554547257",
    "firebase_url": "https://flutterapp-82165.firebaseio.com",
    "project_id": "flutterapp-82165",
    "storage_bucket": "flutterapp-82165.appspot.com"
  },
  "client": [
    {
      "client_info": {
        "mobilesdk_app_id": "1:286554547257:android:e27ada6be95849de8419e8",
        "android_client_info": {
          "package_name": "com.example.ff_app"
        }
      },
      "oauth_client": [
        {
          "client_id": "286554547257-bo7co39l5air9anon0sithde5ff1o7hf.apps.googleusercontent.com",
          "client_type": 3
        }
      ],
      "api_key": [
        {
          "current_key": "AIzaSyAUp4f51lJuysqTMtUXM_mhdzeJDjxMY50"
        }
      ],
      "services": {
        "appinvite_service": {
          "other_platform_oauth_client": [
            {
              "client_id": "286554547257-bo7co39l5air9anon0sithde5ff1o7hf.apps.googleusercontent.com",
              "client_type": 3
            }
          ]
        }
      }
    }
  ],
  "configuration_version": "1"
}